<svg xmlns="http://www.w3.org/2000/svg" xmlns:xlink="http://www.w3.org/1999/xlink" id="Layer_1" x="0px" y="0px" viewBox="0 0 1561 1585" style="enable-background:new 0 0 1561 1585;" xml:space="preserve">
<style type="text/css">
	.st0{fill:#C2CDC1;}
	.st1{fill:#FEFEFE;}
</style>
<g>
	<path id="Path_1" class="st0" d="M869,1480.5c4.8,4.8,9.2,8.9,13.4,13.2c13.9,14.1,25.6,30.2,34.7,47.8c3.5,6.6,6,13.7,7.4,21.1   c0.9,4.2,0.4,8.6-1.2,12.6c-1.4,3.3-2,3.5-5.2,1.9c-4.2-2.3-8.1-5.1-11.7-8.4c-11.2-10.1-23.9-18-36.8-25.5   c-17.6-10.3-31.3-24.5-41.7-42c-3.2-5.3-5.3-11.2-10-15.7c-4.2-4.2-9.8-6.6-15.8-6.8c-8-0.1-16,0.5-23.9,1.9   c-5.4,0.8-11,1.1-16.4,1.6c-15,1.5-29.9,1-44.9,0.7c-11.4-0.4-22.7-1.3-34-2.8c-12.9-1.5-25.7-3.4-38.5-5.5   c-15.1-2.6-30-5.5-45-8.5c-14.4-2.9-28.9-5.8-43.4-8.6c-11.5-2.3-22.8-5.4-34.1-8.6c-20.5-6-40.6-13.4-60.2-21.9   c-17.2-7.5-33.9-15.9-50.3-24.9c-19.3-10.7-38.1-22.4-56.1-35.1c-14.7-10.3-28.9-21.4-42.6-33c-16.6-14-32.5-28.9-47.6-44.6   c-10.9-11.3-21.1-23.1-31.1-35.2c-11.4-13.7-22.1-27.9-32.5-42.3c-11.7-16.2-22.5-33-32.7-50.1c-15.8-26.7-30.2-54.2-43.1-82.4   c-9.3-20.1-17.6-40.5-25.5-61.1c-1.6-4.1-3.2-8.3-2.7-12.9c0.6-5.1,6-8.8,10.3-7.1c2.1,0.8,2.8,2.6,3.6,4.4   c3.6,7.9,7.2,15.9,10.8,23.9c5.9,13.4,11.6,26.8,17.6,40.1c7,15.6,13.6,31.4,21.5,46.6c14.2,26.9,30.2,52.9,47.8,77.8   c9.7,13.8,20.4,27,31.9,39.4c8.7,9.4,16.5,19.6,24.7,29.4c10.8,12.8,21.8,25.4,35,35.8c9.5,7.5,18.3,15.8,27.4,23.8   c11,9.6,22,19.1,32.9,28.9c6.5,5.8,13.1,11.6,19.9,17c9.6,7.6,20.6,12.7,31.6,17.8c11,5.2,22.1,10,33,15.1   c20.4,9.5,41,18.2,62.1,26c13.4,4.9,27.8,6.7,42,5.3c8.4-0.8,16.3-3.9,23.7-7.8c19.8-10.2,41-17.5,62.9-21.5   c10.8-2,21.7-3.7,32.8-3.8c13.5-0.1,27.1-0.2,40.6,1.2c9,0.8,18,2.3,26.8,4.4c4,1.1,7.8,2.7,11.3,4.9c4.6,2.7,5.5,6.9,2.5,11.3   c-1.5,2.3-3.7,4-6.2,4.8c-3.5,1.2-7.2,1.9-11,2.2c-25.7,1.9-49.9,9.2-73.1,20.1c-2,0.8-3.8,2-5.4,3.4c-3.5,3.5-3.3,6,1,8.4   c4.9,2.6,10.1,4.5,15.5,5.6c8.6,2,17.5,3.2,26.4,3.4c13.2,0.2,26.4-0.2,39.5-1.3c15.4-1.2,30.8-2.2,45.9-6.1   c16.8-4.4,32-11.4,45.1-23.2c15-13.7,30.5-26.8,46.1-39.7c11.6-9.6,22.7-20,34.9-29c14-10.2,29.2-18.5,45.3-24.8   c19.4-7.8,39.7-12.3,60.2-16.1c19.8-3.9,39.9-5.2,60-4.1c11.9,0.7,23.6,4.2,34,10.1c2.3,1.3,4.6,3,4.4,5.6   c-0.2,2.9-3.1,4.1-5.5,5.2c-3.8,1.7-8,1.5-12,2.2c-22.5,3.8-44.3,11.3-64.3,22.2c-9.4,5.1-18,11.6-26.8,17.6   c-20.9,14.3-42.7,27.1-64,40.6c-4.7,2.9-9.2,6.2-14.1,8.7c-4.3,2.2-8,5.4-10.7,9.5c-1.9,2.9-1.4,3.7,2,4.9c1.9,0.6,3.9,0.6,5.7,0   c17.2-5.2,34.4-10.5,51.7-15.4c16.9-4.8,34-9.3,50.6-15.2c24-8.6,47.2-19.2,69.4-31.7c20.2-11.3,39.3-24.5,58.9-36.8   c19.5-12.2,38.1-25.6,56.6-39.2c14.6-10.8,28.1-23,40.3-36.6c10.5-11.7,19-24.9,26.6-38.7c12.1-21.9,21.3-45.1,31.4-67.8   c10.8-24.3,22.6-48,36.8-70.6c10.7-17,22.5-33.4,35.3-48.9c12.6-15.5,26.5-29.9,41.4-43.1c5.6-4.9,11.3-9.8,17-14.6   c3.9-3.2,8.2-5.8,12.8-7.7c1-0.4,2-0.8,3-0.9c6.8-1,8.5,0.6,8.5,7.5c0,7.3-2.2,14.2-5.3,20.5c-12.8,26.4-21.9,54.1-31.3,81.8   c-6.9,20.8-15.7,41-26.2,60.2c-10.3,18.8-22.7,36.1-36.4,52.7c-11.8,14.3-24.4,27.9-37.8,40.7c-11.1,10.5-22.6,20.7-34.3,30.5   c-22.6,19-46.2,36.8-69.9,54.5c-3.1,2.3-6.5,4.4-9.7,6.7c-2.3,1.7-2.1,3,0.6,4.1c4.4,1.7,9.2,1.7,13.5,0c4.5-1.6,9-3.5,13.3-5.6   c8.8-4.3,17.8-8.4,27.4-10.4c7.1-1.5,14.3-2.6,21.5-3.7c8.2-1.3,16.6-2.1,24.8-3.5c8.8-1.4,17.6-2.2,26.4-3.3   c13.3-1.6,26.6-2.3,39.9-1.9c23.6,0.8,46.6,4.7,68.6,14c4,1.5,7.8,3.4,11.5,5.6c2.2,1.5,3.9,3.7,4.8,6.2c1.3,3.5,0.2,6.3-3.2,8   c-4.7,2.3-10,3-15.1,2c-5.3-0.9-10.7-0.9-15.9,0c-0.9,0.2-1.8,0.3-2.6,0.3c-22.1,0.1-42.8,6.5-62.9,14.9   c-30.8,12.9-62.5,22.8-94.7,31.3c-15.1,4-30.4,7.4-45.8,10.2c-11,2-22,3.7-33.2,4.9c-16.6,1.7-33.3,3.6-50,2.8   c-10.1-0.5-20.3-0.8-30.4-0.8c-15.9,0.1-31.6,3.2-46.3,9.3c-17.8,7.2-35.6,14.4-53.4,21.6c-6.8,2.7-13.2,6.2-19.7,9.6   c-0.6,0.3-1.2,0.7-1.8,1.1c-3.9,3-3.9,4.4,0.3,7c4.9,3,10.5,4.4,15.9,6c10.2,3,20.7,5.5,30.5,9.6c13.9,5.9,26.3,14.1,37.9,23.7   c6.8,5.7,13.3,11.9,19.3,18.5c14,15,25.9,31.8,35.6,49.9c0.9,1.7,1.7,3.5,2.2,5.4c1.8,5.7-1.6,10.9-7.5,11.6   c-4.3,0.5-8.6-0.6-12.2-3c-4.9-3-9.1-6.8-13.5-10.5c-10.6-9-23.1-14.8-35.5-20.5c-20.6-9.3-42-16.9-62.3-26.8   c-20.2-9.9-39.4-21.5-55.1-38.1c-4-4.3-7.7-8.9-11-13.8c-1.3-1.9-2.8-3.1-5.2-3c-15.1,0.9-30.2,0.5-45,4.3   C878.8,1474.9,873.7,1477.3,869,1480.5z M884.6,1529.3l-0.4-0.2c0,0.1,0.1,0.3,0.1,0.4c0,0.1,0.2,0.1,0.3,0.1   C884.7,1529.5,884.7,1529.4,884.6,1529.3c-7.7-17.3-19-29.9-38.3-34C849.2,1508.7,870.6,1526.3,884.6,1529.3L884.6,1529.3z    M1425.7,1024.1c-1.9,1.1-3.5,2.6-4.7,4.3c-3,3.5-5.9,7.1-8.8,10.7c-8.7,10.6-17.5,21.1-25.9,31.9c-17.1,22.2-31,46.5-43.8,71.4   c-6.9,13.5-13.5,27.1-20,40.8c-8.5,17.7-17.4,35.1-26.1,52.7c-0.7,1.5-2.1,2.9-1.7,4.8c1.9,0.2,3-0.7,4.3-1.4   c8.9-4.8,17.3-10.7,24.8-17.5c15.5-14.1,28.8-30.1,40.7-47.3c14.8-21.4,27.5-44.2,37.9-68c9.1-20.6,16.5-41.7,21-63.8   C1424.5,1036.8,1426.4,1030.9,1425.7,1024.1z M1143.3,1394.3c4.6,0,9.2-0.7,13.8-0.8c11.4-0.4,22.7-1.2,34-2.2   c9.8-0.8,19.5-2,29-3.7c33.7-6.2,66.3-16.3,98.1-28.9c16.1-6.4,32.3-12,49.4-15c7-1.2,14-2.5,20.4-6c1.8-1,3.5-2,3.4-4.3   c-0.1-2.6-2.4-2.7-4.1-3.5c-3.6-1.7-7,0.1-10.5,0.1c-21.9-0.3-43.8,0.8-65.5,3.2c-12.7,1.3-25.3,3.4-37.8,6.2   c-20.3,4.8-39.7,12.6-58.8,20.8c-21.8,9.4-43.8,17.9-66.9,23.4c-4.9,1.1-9.6,2.9-14,5.2c-1.3,0.7-2.6,1.5-2.3,3.2   c0.4,2,2,2.3,3.7,2.3C1137.9,1394.3,1140.6,1394.3,1143.3,1394.3z M851.8,1445.3c6.1,1,12.4,0.2,18.1-2.2c4.1-1.8,8.2-3.6,12.2-5.5   c23.1-11,44.7-24.4,65.6-39c20.8-14.6,41.3-29.7,61.9-44.6c1.6-1.2,3.8-1.8,4.7-4.2c-4.4-1.1-8.4,0.4-12.4,0.5   c-8.3,0.4-16.6,1.5-24.8,3.4c-15.8,3.1-30.8,9-44.4,17.6c-15.8,10.1-29.9,22.3-43.8,34.9c-8.2,7.4-15.9,15.3-24.1,22.7   C859.7,1433.5,856.4,1439.2,851.8,1445.3z M1077.3,1533.4c-3.6-10.9-23.4-29.6-41.9-39.4c-18.2-9.6-52.7-17.4-62.1-14.4   c1.3,3.3,3.3,6.3,5.7,8.8c7.4,8.6,17.2,13.8,27.5,18c10.3,4.1,20.3,8.7,30.1,13.8c5.8,3.1,11.8,5.9,17.9,8.2   C1061.7,1531.2,1069.4,1532.9,1077.3,1533.4L1077.3,1533.4z M657.8,1415.7c-3.4,0.1-6.8,0.4-10.2,1c-13.6,1.5-26.9,4.9-39.6,10   c-6.1,2.5-12,5.5-17,9.9c-3,2.6-2.8,3.6-0.2,6.6c3.2,3.7,7.3,4.3,11.7,3.5c10.3-2,20.5-4.3,30.7-6.5c9.8-2.1,18.9-6.5,26.7-12.7   c2.4-1.8,4.6-4,6.5-6.3c2.3-3.1,1.5-4.9-2.3-5.2C662.1,1415.5,660.2,1415.7,657.8,1415.7z"></path>
	<path id="Path_2" class="st0" d="M862.6,146.7c-4.8-3.5-10.2-6.2-15.9-8c-10.4-3.2-21.1-5.2-31.9-5.9c-9.4-0.8-18.8-1-28.3-0.5   c-10.5,0.7-21,0.5-31.5,0.8c-2.3,0-4.6,0.6-6.7,1.7c-12.5,6.4-25.5,12.1-37.6,19.3c-9.2,5.5-16.1,13.5-22.6,21.7   c-4.3,5.4-9.3,10.3-14.8,14.6c-13.6,10.6-27.5,20.9-42,30.3c-14.1,9.1-29.2,16.5-45,21.9c-16.9,5.7-33.6,11.8-50.9,16.2   c-15.8,4-32,6.5-48.1,9.4c-8,1.4-16,3.3-24,4.8c-5.5,1-11,1.3-16.3-0.9c-6.6-2.7-9.5-10.5-6.2-16.3c2-3.4,5.5-4.6,8.8-5.5   c9.3-2.6,18.4-5.5,27.4-8.8c12-4.6,23.6-10.1,34.8-16.3c18.1-9.7,35.2-21,52.1-32.5c21.3-14.6,42.4-29.4,63.6-44.2   c0.8-0.5,2-0.9,2.1-2.5c-4.7-1.9-9.9-2.5-15-1.5c-7.8,1.2-15.2,3.8-22.5,6.5c-15.4,5.5-30.8,11.1-46.2,16.8   c-29.3,10.7-58.7,20.9-87.6,32.5c-14,5.6-27.9,11.8-41.4,18.6c-21.5,10.8-42.3,23-60.7,38.6c-13.5,11.4-25.8,24.1-36.6,38   c-9.1,11.7-17.2,24.1-24.1,37.2c-6.2,11.6-11.1,23.9-15.9,36.2c-7.1,17.9-15.9,35-25.4,51.8c-9.1,16.1-18.4,32.2-28.3,47.8   c-10.4,16.4-21.8,32.1-33.9,47.2c-12.9,16-27.6,30.3-42.4,44.5c-4.4,4.2-9.1,8-13.8,11.8c-4.1,3.3-8.7,5.4-14.3,4.8   c-1.8,0-3.4-1.2-4-2.9c-2-5.6-3.1-11.2-2.4-17.2c1.6-13.5,7.1-25.7,11.7-38.2c7.1-19.2,14.2-38.4,22-57.4   c11.8-28.9,25.3-57,43.5-82.6c7.7-10.9,16-21.3,24.9-31.4c5.2-5.9,10.7-11.5,16.2-17.1c14.6-15.2,30.9-28.6,48.7-39.8   c21.4-13.3,40.7-29.4,60.8-44.3c5-3.7,9.7-7.9,13.9-12.5c2.9-3.2,2.5-4.4-1.7-5.8c-6.4-2.1-12.7-0.7-19,0.5   c-10.2,1.9-19.7,5.9-29.8,8.2c-10.8,2.4-21.6,4-32.6,5.3c-12,1.5-24.1,1.6-36.2,2.3c-10.5,0.7-21-0.1-31.4-0.6   c-18.5-0.8-36.8-4.6-54-11.4c-8.6-3.4-13.4-9.6-14.8-18.6c-0.7-4.8,0.2-6.5,4.8-7.9c3.6-1,7.3-1.5,11.1-1.4   c23.1,0.3,46.2-2.6,68.5-8.6c16.5-4.4,32.8-9.5,49.2-14.3c21.7-6.4,43.1-13.6,65-19.1c12.3-2.9,24.7-5,37.3-6.2   c18.4-2,37-2.6,55.5-1.7c10.6,0.3,21.3,1.2,31.8,2.7c7.9,1.2,16,1.3,23.8,2.6c6.7,1.1,13.5,0.5,20.2,1.7c5.1,0.9,10.3-0.5,15.2-1.8   c9-2.4,17.1-7.1,25.7-10.5c11-4.3,21.1-10.3,31.9-15c4.9-2.1,10-3.5,15.9-6.2c-7.7-2.5-14.5-4.8-21.4-7c-12-3.8-24.6-5.6-36.6-9.8   c-18-6.4-34.7-15.9-49.4-28.2c-19.1-16-33.6-35.7-46.2-57c-3-5.1-5.3-10.5-5.1-16.6c0.2-5.7,2.5-8,8.1-8.4   c4.9-0.5,9.7,1.3,13.1,4.9c16.9,18.2,38.9,27.1,61.6,35c13.8,4.8,27.8,9,41.3,14.5c20.8,8.4,40.6,19.3,58.8,32.5   c7.6,5.6,15.3,11.1,21.9,17.9c1.5,1.5,2.8,3.2,4.2,4.8c3.2,4.3,8.2,7,13.5,7.4c5.5,0.5,11,0.7,16.4,1.5c6.8,1.1,13.5-0.5,20-2.4   c3.3-1,4.7-2.7,1.8-6.3c-2.8-3.4-5.4-7.1-8.5-10.3c-6.5-6.6-13.3-13-19.6-19.8c-8.9-9.6-16.8-19.9-22.2-31.8c-1.3-2.9-2.4-6-3-9.1   c-0.8-3.2,0.3-6.5,2.8-8.6c2.5-2.2,5.3-1.5,8-0.4c3.3,1.3,6.4,3.1,9.2,5.3c10.1,7.8,21.6,13.1,33.1,18.4   c11.8,5.4,24.1,9.8,35.2,16.8c11.4,7.2,21.3,15.9,28.1,27.9c8,14.1,9.9,14.8,26.1,15.4c13,0.5,25.9,1.8,38.7,3.9   c12.1,2,24.2,3.5,36.3,5.6c13.3,2.3,26.6,4.2,39.9,6.6c19.7,3.6,39.4,7.7,58.9,12.6c22.9,5.7,44.9,13.7,66.6,22.7   c22.1,9.2,43.8,19,65,30s41.9,22.9,62,35.8c21.1,13.6,41.4,28.3,60.9,44.1c9.8,7.9,19.2,16.4,28.6,24.9   c11.4,10.3,22.3,21.1,32.9,32.1c13.2,13.7,25.8,28,37.9,42.7c12.3,15,24.2,30.4,35,46.5c8.3,12.4,16.2,25.1,23.6,38.2   c11.5,20.5,23,41,34.5,61.5c3.4,6.1,7.1,11.9,10.4,18.1c4.4,7.9,7.8,16.4,10.3,25.1c1.8,6.7-2.1,12.9-8.8,14.6   c-2.6,0.7-5-0.4-6.9-1.9c-2.5-2-4.5-4.6-5.7-7.6c-13.1-31.8-27-63.3-43.3-93.6c-11.4-21.2-23.8-41.8-38.6-60.9   c-7.8-10.1-16-20-24.6-29.5c-11.7-13-23.4-25.9-35.3-38.7c-12.6-13.6-25.6-26.8-39.1-39.5c-18.2-17.3-37.4-33.5-57.6-48.4   c-14.8-10.8-30.2-20.8-46.1-30c-19.7-11.5-40.2-21.6-60.8-31.3c-19.2-9-38.6-17.4-58-25.9c-10.8-4.7-22-5.3-33.4-2.7   c-12.7,2.9-24.8,7.6-37,12.1c-18.4,6.8-37,12.9-56.4,15.9c-5.1,0.8-10.2,1.9-15.4,1.4c-4.3-0.4-8.5,1.4-12.7,0.8   c-9.5-1.3-19.2-0.6-28.7-1.6c-8.5-0.9-16.9-2-25.5-2.5c-3.2-0.2-6.3-1.2-9.5-1.2c-2.5,0-3.8-1.8-3.9-4.2c-0.1-3.7-0.2-7.5-0.1-11.2   c0-2.8,2-4.5,4.3-5.7c2.5-1.4,5.1-2.5,7.8-3.4c15.7-5.3,31.7-9.4,47.7-13.7c7.2-2,14.3-4.3,21.4-6.5   C860.6,148.7,862,148.4,862.6,146.7z M141.7,537.6c10.4-5,22.2-14.8,28.5-23.1c12.5-16.6,24.5-33.6,35.7-51.2   c15.6-24.7,29.9-50.2,43.5-76c8.6-16.4,15.3-33.7,23-50.5c0.7-1.8,1.3-3.7,1.6-5.6c0.3-1.4,0.7-3-0.7-3.9c-1.1-0.8-2.4-0.2-3.5,0.4   c-1.6,0.8-3.2,1.6-4.7,2.6c-9,6-17.3,13.1-24.6,21.1c-12.2,12.8-22.8,26.8-32.7,41.4c-17.2,25.1-32.2,51.7-44.7,79.5   c-7.6,16.3-13.8,33.2-18.7,50.5C143,527.4,140.9,532,141.7,537.6z M192.5,223.3c9.3,2.7,17.9,4.5,26.5,4.9   c11.4,0.6,22.8,0.4,34.1-0.7c13.8-1.5,27.5-3.3,41.1-5.9c27.2-5.2,54.1-12.1,80.5-20.6c14.6-4.7,29.1-9.4,44-13.1   c4.5-1.2,8.8-2.9,12.9-5c1.9-1,3.6-2.3,5-4c1.7-2,1.6-3-0.7-4.1c-1.9-0.9-4-1.6-6-2.1c-10.7-2.8-21.5-1.8-32.3-0.9   c-9.9,0.9-19.7,2.7-29.5,3.9c-15.5,1.9-30.8,4.9-46.1,8.3c-16.8,3.7-33.5,8.2-50,13C245.4,204.8,219.1,212.6,192.5,223.3   L192.5,223.3z M543.1,233.4c2.3,0.5,4.6,0.4,6.8-0.1c11.7-2.3,23.1-5.7,34.1-10.3c17.5-7.1,34.1-16.1,49.6-26.9   c7.3-5.1,14.2-10.7,20.9-16.5c10.2-8.7,18.8-19,25.6-30.5c0.5-0.9,1.1-1.9-0.2-2.7C630.1,162,574.3,199.3,543.1,233.4L543.1,233.4z    M480.8,49.3l-0.8,1.4c13.4,16.9,31.2,28.1,50.5,37c25.6,11.8,52.3,19.4,82.1,18.6c-16.9-14.6-35-24.7-54.1-33.1   c-18.6-8.2-38.1-13.8-57.7-18.9C494.2,52.6,487.5,51,480.8,49.3z M933.1,157.3l-0.2-1.3c-1.5-0.5-3-1-4.5-1.4   c-8.1-1.9-16.5-2.7-24.8-2.3c-3.6,0-7.1,0.9-10.3,2.4c-14.4,7.4-29.1,14.1-43.7,21c-0.8,0.4-1.7,0.6-1.8,2.2   C879.6,184.7,907.1,174.3,933.1,157.3L933.1,157.3z M735.2,101.7c0.4-2.7-1.1-4.1-2.1-5.8c-3.8-5.8-9.2-9.9-15.1-13.2   c-11.7-6.5-24.3-11-36.9-15.4c-1-0.4-2.2-1-2.9,0c-0.9,1.3,0.2,2.3,1,3.2c4.9,5.4,9.8,10.8,15.6,15.3   C706.5,95.1,720,99.8,735.2,101.7L735.2,101.7z"></path>
	<path id="Path_3" class="st0" d="M909.4,817.1c1.6-0.7,2.6-2.2,2.6-4c1.8-14.3,3.6-28.5,5.5-42.8c1.9-14.4,4.3-28.8,6-43.2   c1-8.5,2.2-16.9,2.6-25.5c0.3-5.3,0.7-10.6,1.1-15.9c0.4-6.6,3.8-10.5,9.2-11.7c5.8-1.1,11.6,2.4,13.1,8.1c0.7,2.6,1,5.2,1,7.9   c0,9.6-0.1,19.3,0.1,28.9c0.2,11.7,0.7,23.5,1.9,35.1c0.1,0.5,0.1,1.1,0,1.6c-0.4,11.8,1,23.5,1.4,35.2c0.5,13.5,1.5,27,2.1,40.5   c0.2,4.6,0.7,9.2,0.9,13.8c0,1.2-0.1,2.7,1.7,2.8c1.6,0.1,2-1.4,2.2-2.6c0.9-3.8,0.6-7.8,1.2-11.7c1.2-8.8,1.7-17.7,2.5-26.5   c1-10.1,2.2-20.1,2.9-30.2c0.4-5.1,0.9-10.3,1.3-15.4c0.9-10.4,2-20.9,3-31.3c0.4-4.4,0.6-8.9,1.1-13.3c1.1-9.9,1.5-19.8,2.4-29.7   c1.2-13.4,2.9-26.8,4-40.3c0.5-6.9,0.7-13.8,1.2-20.8c0.2-3.9,0.9-7.8,2.1-11.5c2.3-6.8,7.9-9,14.4-6.3c9.1,3.8,10.5,10.1,8.7,18.3   c-3.3,14.6-6,29.2-7.8,44c-1.5,12.1-2.8,24.3-3.7,36.6c-0.9,11.8-1.6,23.7-2.7,35.6c-0.6,6.5-1.1,13.1-1.3,19.7   c-0.5,12.6-1.8,25.1-2.9,37.7c-0.8,8.7-2,17.3-2.6,26c-0.6,8.3-1.9,16.6-2.8,24.9c-0.6,5.1-0.8,10.3-1.1,15.4   c-0.7,12.4-1.9,24.8-2.7,37.2c-0.9,13.8-1.6,27.7-4,41.4c-0.9,5-3.7,8.4-7.4,11.2c-2.1,1.8-5.1,1.9-7.5,0.4   c-4.9-2.7-8.4-7.4-9.6-12.9c-1.3-5.9-2.4-11.8-3.3-17.8c-1.6-10.9-2.8-21.8-4.6-32.7c-2.3-14.4-4.9-28.7-7.4-43   c-0.7-4-1.5-8-2.3-12c-0.1-1-0.7-1.8-1.6-2.3c-2.9,16.7-6.1,33.2-8.7,49.8c-1.3,8.4-2,16.9-2.7,25.4c-0.8,9.8-0.7,19.6-0.8,29.4   c-0.1,2.5-0.6,5-1.4,7.3c-1,3.3-3.4,6.5-8.8,6.3c-5.6-0.2-10.8-0.8-14-6c-1.9-3.1-2-6.8-2.5-10.3c-0.2-2-0.2-3.9-0.1-5.9   c0.3-10-0.9-19.9-1.3-29.9c-0.4-10.5-1.2-20.9-2.1-31.4c-1.1-12.6-1.2-25.2-2.8-37.7c-0.7-5.5-0.7-11-1-16.5   c-0.4-7.5-1-14.9-1.6-22.4c-0.8-11.1-1.2-22.3-2.8-33.4c-0.7-4.9-0.7-9.9-1.1-14.9c-0.9-12.9-2.5-25.8-3.6-38.7   c-1.3-15-3.4-30-5-45c-0.9-8.3-1.5-16.6-2.4-24.9c-0.4-4.1-1.2-8.1-1-12.2c0.1-2.9,0.6-5.7,2.5-8c2.4-3.1,5.6-5,9.7-4.3   c4.8,0.8,8.2,3.4,9.8,8c0.7,1.8,1.1,3.8,1.3,5.7c0.8,9.2,1.5,18.4,2.3,27.6c0.9,9.5,2,19.1,3,28.6c0.5,5.1,0.8,10.3,1.3,15.4   c0.9,9.4,1.9,18.7,2.9,28.1c0.5,4.2,0.5,8.5,1.1,12.7c1.2,9.2,1.6,18.4,2.4,27.6c0.9,9.5,2.1,19.1,2.9,28.6   c0.4,4.8,0.7,9.6,1.3,14.3C908,812,908.8,814.3,909.4,817.1z"></path>
	<path id="Path_4" class="st0" d="M9.8,659c0-12.3,0-23.2,0-34.1c0-2.1,0.2-4.3,0.7-6.3c2.1-8.2,6.1-11.7,14.4-11.1   c8,0.6,15.9,2,23.3,5.2c10.1,4.4,17.1,12.1,22.1,21.7c7.4,13.7,11.2,29,11.2,44.6c0,7.1,0,14.3,0,21.4c-0.1,16-2.4,31.8-4.9,47.7   c-1.5,9.3-3.8,18.5-3.7,28c0,4.3,0.7,8.5,2.1,12.6c4.4,13.2,7.4,26.7,8.9,40.5c1.3,12.9,1.5,26,0.6,39   c-1.2,19.2-3.8,38.2-10.4,56.4c-2.7,7.5-6.9,14-13.9,18.4c-5.2,3.2-11,4.2-16.8,4.8c-11.8,1.1-22.5-1.7-32-9.2   c-4.4-3.5-6.9-7.7-6.8-13.2c0.1-8.2,0-16.3,0.8-24.5c0.8-8.3-0.1-16.8,0.4-25.1c0.9-15.1,0.3-30.3,1.2-45.4   c0.8-11.8,0.4-23.5,0.8-35.2c1.2-31.9,0.5-63.8,1.4-95.7C9.5,685.3,9.3,671.4,9.8,659z M61,851.7c0.5-3-0.6-5.3-1-7.8   c-1.6-9.8-2.8-19.7-5.3-29.3c-1-3.6-2.8-6.9-5.1-9.9c-1.1-1.5-2.7-2.4-4.5-2.4c-7.5-0.4-12.1,3.7-12.7,11.2c-0.1,1.8-0.1,3.6,0,5.4   c0.2,13.9,0.1,27.8,0.9,41.7c0.8,13.3-1.3,26.7-0.8,40.1c0.1,4.3,0.7,8.5,1.9,12.6c1.1,3.9,3.1,4.8,6.7,3.7c6-1.9,10.3-5.5,11.5-12   c1.4-7.5,2.7-15,3.9-22.6C58.1,872,59.5,861.6,61,851.7L61,851.7z M33.3,708.9c0,19.2,0,38.5,0,57.7c-0.1,1.6,0,3.2,0.4,4.8   c0.5,1.9,2.5,2.5,3.7,1.1c4.9-6.1,10.7-11.6,12.6-19.6c3.2-13.8,5.7-27.8,5.9-42.1c0.2-11.9,0.7-23.8-1.1-35.7   c-1.1-7-1.7-14.1-4.1-20.8c-1.7-4.8-4.8-7.8-9.7-8.9c-5.4-1.3-7.7,0.4-7.7,5.8C33.3,670.4,33.3,689.6,33.3,708.9L33.3,708.9z"></path>
	<path id="Path_5" class="st0" d="M1471,817.2c0-15.3-0.6-30.7,0.1-46c1.4-29.9,0.1-59.9,1.1-89.8c0.4-10.3,0-20.7,1.1-30.9   c1-9.2,0.4-18.5,1.6-27.7c0.8-5.9,3.7-9.5,8.2-12.3c5.4-3.3,11.5-3.6,17.6-2.8c14.3,2,24.3,10.3,31.7,22.2   c8,12.9,12.1,27.3,15.5,41.9c2.9,12.6,4.9,25.4,6.7,38.3c2.3,16.9,2.3,33.8,1.7,50.6c-0.6,14.6-1.5,29.1-2.1,43.7   c-0.5,10.5-1.1,21-2.1,31.4c-1.8,18.7-3.2,37.5-7.3,55.9c-2.5,11-5.7,21.7-12.5,31c-4.4,6-9.5,11.2-16.3,14.3   c-7,3.1-13.6,7-21.3,8.2c-4.9,0.9-10,0.4-14.6-1.5c-7.8-3.2-10.7-9.8-11-17.5c-0.2-6.9-0.7-13.9,0.7-20.8c0.3-2.1,0.3-4.3,0.1-6.4   C1469.7,871.7,1471.8,844.5,1471,817.2z M1492.2,888.1c0,3.8,0,8.6,0,13.5c0,2.1,0.4,4.3,1.1,6.3c2,6,6.6,7.8,11.5,4   c4.9-3.8,9.5-8.1,11.2-14.6c0.6-2.1,1.6-4,2.2-6c3.5-11,6.9-22,7.3-33.8c0.2-5.1,0.8-10.3,1.2-15.4c0.8-10.6,2.2-21.2,2.8-31.8   c0.4-6.6,1.1-13.1,1.5-19.7c0.3-5,0.4-10,1-14.9c1-8.1,1.5-16.3,1.8-24.4c0.1-3.6-1-7-1.1-10.6c-0.1-5.2-0.5-10.3-1.2-15.4   c-1.6-11.8-3.4-23.5-5.1-35.3c-2.2-15.3-7.2-29.7-13.2-43.8c-0.8-2-2.3-3.6-4.2-4.7c-6.6-3.8-9-2.6-10.5,4.8   c-2.5,12.6-2.6,25.5-2.9,38.2c-1,41.5,0.5,83.1-1.2,124.6c-0.5,11.6-0.4,23.1-0.8,34.7C1493,858.3,1492,872.7,1492.2,888.1   L1492.2,888.1z"></path>
	<path id="Path_6" class="st0" d="M328.7,933.9c-0.3-7.7,1.7-14.6,2.6-21.6c1.6-12.1,3.9-24.2,5.9-36.2c2.4-14.9,4.9-29.8,7.3-44.7   c1.6-10,3.1-20,4.6-30c2.1-14,4.3-28.1,6.2-42.1c1.7-12.1,3-24.3,4.5-36.5c1.4-11.1,2.8-22.2,4-33.3c0.8-7.2,1.5-14.5,2.3-21.7   c1.7-17.3,4.4-34.5,8.3-51.5c0.8-3.4,1.4-6.5,4.1-9c5.4-5,13.9-4.8,18.9,0.6c1.4,1.5,2.4,3.2,3,5.1c1.5,5.2,1.4,10.6,1.9,15.9   c0.5,6.2,1,12.4,1.5,18.6c0.9,10.3,1.4,20.5,2.8,30.8c0.6,4.4,0.9,8.8,1.3,13.3c0.9,10.8,2,21.6,3.1,32.3c1,9.7,1.5,19.5,2.4,29.2   c0.9,10.4,2,20.8,3,31.3c0.4,4.4,0.6,8.8,1.1,13.3c1.4,13.8,2.2,27.6,3.5,41.4c1.2,12.7,2.7,25.4,4,38.1c0.9,8.7,1.5,17.4,2.4,26   c0.7,6.3,1.5,12.7,2.6,19c0.6,3.9,0.8,7.8,0.4,11.7c-0.4,4.7-2.6,8.5-7.5,10c-3.7,1.1-6.2,0.7-8.5-2.3c-4.7-6.1-8.3-12.6-8.5-20.8   c-0.3-6.9-1-13.8-2.2-20.6c-1.3-8.3-4.5-10.8-12.9-11.1c-7.5-0.2-14.9,0.5-22.2,2c-7.6,1.5-10.6,4.3-11.6,11.7   c-1.2,8.3-1.8,16.6-2.2,24.9c-0.1,5.2-1.2,10.3-3.2,15c-2.6,5.8-6.7,8.2-11.7,7.2c-6.1-1.2-10.4-5.8-10.8-11.6   C328.6,936.6,328.7,935,328.7,933.9z M385.9,708.1c-0.8,5-1.4,8.8-2,12.7c-1.6,10.3-3.2,20.7-4.8,31c-1.3,8.6-2.5,17.2-3.8,25.8   c-1.2,8.6-2.5,17.2-3.7,25.8c-1.3,9.7-2.6,19.3-3.9,29c-1.2,8.8-2.5,17.6-3.6,26.4c-0.5,4.2,0,4.7,4.3,4.4   c7.4-0.5,14.9-1.2,22.3-1.2c4.5,0,7.3-3.3,7.4-8.2c0.1-5.2-0.2-10.3-0.8-15.4c-1.2-12.2-2.2-24.4-3.3-36.6   c-1.1-13.6-2.2-27.3-3.2-40.9c-0.8-11.2-1.3-22.4-2.6-33.5C387.8,721.4,388.5,715,385.9,708.1z"></path>
	<path id="Path_7" class="st0" d="M712.2,715.7c0,26.4,0,52.9,0,79.3c-0.2,3.2,0.3,6.3,1.3,9.3c1.7,4.3,4.7,6.9,9.4,7   c4,0.1,7.9,0.1,11.9,0c6.7-0.2,10.1-3.9,10.8-9.1c0.4-1.9,0.7-3.8,0.8-5.7c0.4-22.7,0.8-45.4,1.3-68.1c0.5-21.8,0.2-43.7,1.1-65.5   c0.4-11.6,0.4-23.2,0.8-34.8c0.1-3.9,1.1-7.7,3-11.1c1.4-2.7,3.9-4.6,6.8-5.2c3.7-0.9,6.3,0.3,8.2,3.7c2.2,4,2.4,8.5,2.5,12.8   c0.3,11.1,0.6,22.2-0.1,33.3c-1.4,24.1,0,48.3-1,72.4c-1.4,34.3,0,68.7-1.1,103c-0.8,24.7-0.7,49.3-0.5,74   c0.1,10.2,1,20.4,0.9,30.6c-0.1,6.1-3.6,10.4-8.9,10.2c-4.5-0.1-8.9-1.7-11.6-5.9c-2.1-3.1-3.2-6.7-3.3-10.4   c0.1-12.3-0.5-24.7,0.3-37c1.1-17.3,0.4-34.5,0.8-51.8c0.1-2.5,0.1-4.9-1.3-7.2c-1.2-1.9-2.9-3.3-5.1-2.7c-5.9,1.6-12,0.7-18,0.9   c-5.9,0.2-7.4,1.9-7.8,7.9c-1.3,21.8-1.1,43.6-0.9,65.5c0,6.3,1.2,12.6,1,18.9c-0.1,2.8-0.6,5.6-1.3,8.3   c-1.8,6.7-10.4,9.7-15.7,4.4c-4.3-4.4-6.9-9.6-6.5-15.5c0.7-11.9,0.5-23.9,1.6-35.8c0.6-6.8,0-13.8,0.4-20.6   c1.5-23.4,1.3-46.9,0.6-70.2c-0.5-19.6-0.1-39.1-0.9-58.6c-1.6-36.6-0.3-73.3-0.8-109.9c0-3,0.5-6,1.6-8.8c1.2-3.9,4.9-6.6,9-6.7   c4.6-0.4,7.1,2.1,8.7,5.9c1.6,4.1,2.4,8.5,2.3,12.9C712.1,662.2,712.1,688.9,712.2,715.7L712.2,715.7z"></path>
	<path id="Path_8" class="st0" d="M1190.4,738.2c0.3,15.5-1.1,31-1.4,46.5c-0.3,12.6-1.1,25.2-2,37.8c-1.9,27.2-6.1,54-14.2,80.1   c-2.7,8.7-5.3,17.4-8,26c-1.3,4.1-3.4,7.8-6.3,11.1c-7.2,8.4-20.8,10.5-31.7,4c-11.5-6.9-17.7-17.3-20.9-29.8   c-2.2-8.6-3.2-17.5-4.4-26.2c-1.1-8.3-2.1-16.6-3-24.8c-0.6-5.1-0.8-10.3-1.1-15.4c-0.6-14.8-2.2-29.5-1.1-44.3   c1.1-15.8,1.7-31.5,3.8-47.3c2.8-21.7,6.7-43.2,10.2-64.7c2.7-16.5,5.2-33,10.5-48.9c2.9-9,7.4-17.4,13.4-24.8   c3.8-4.8,9.1-8.1,15.1-9.6c6.5-1.6,11.5,1,15.3,6.1c9.4,12.6,15.9,27.1,19.2,42.5c1.6,7.5,2.7,15,3.3,22.6   c1.1,11.2,1.5,22.4,2.3,33.5C1190.2,721.1,1190.2,729.6,1190.4,738.2z M1151.8,635.6c-4.3,7.3-8.8,14.5-10.6,22.7   c-2.1,9.5-3.8,19.2-5.8,28.7c-6.7,31.1-12.4,62.4-14.3,94.1c-0.9,15-2.1,30.1-0.7,45.3c1.1,12.3,1.2,24.8,2.4,37.2   c1.2,12,2.7,24,4.7,35.9c0.7,5,2.3,9.7,4.7,14.1c4.4,7.3,8.7,7.2,12.8-0.2c3.9-7.4,6.9-15.3,8.9-23.4c6.3-23.4,9.1-47.4,11.6-71.4   c1.3-11.8,1.7-23.8,2-35.6c0.4-15.8,0.5-31.7-0.4-47.5c-0.9-14.4-1.4-28.8-2.3-43.1c-0.4-6.6-1.1-13.1-1.6-19.7   c-0.1-3.7-0.6-7.4-1.3-11.1C1159.8,652.5,1155.7,644.2,1151.8,635.6z"></path>
	<path id="Path_9" class="st0" d="M1376.6,738.1c0.4,15.3-1.1,31-1.4,46.7c-0.3,12.6-1.1,25.2-2,37.8c-1.9,27.4-6.1,54.4-14.4,80.6   c-2.7,8.5-5.2,17-7.8,25.5c-1.3,4.1-3.5,7.8-6.3,11c-7.1,8.2-20.5,10.5-31.2,4.2c-11.8-6.9-18.1-17.4-21.3-30.1   c-2.2-8.6-3.1-17.5-4.4-26.3c-1.1-8.3-2.2-16.5-3-24.8c-0.6-5.1-0.8-10.3-1.1-15.4c-0.6-14.8-2.2-29.5-1.1-44.3   c1.1-15.8,1.6-31.6,3.8-47.3c2.2-16.2,5.2-32.2,7.6-48.4c2.7-18.1,6-36.1,9.9-54c2.8-12.8,7.7-24.8,16-35.2   c3.5-4.5,8.3-7.9,13.7-9.8c7.1-2.5,12.6-0.7,17,5.2c10.7,14.3,17.8,31,20.6,48.7c1.7,10.9,2.9,21.8,3.4,32.8   C1375.5,709.3,1377,723.5,1376.6,738.1z M1338,635.6c-4.2,7.4-8.7,14.5-10.6,22.7c-2.1,9.5-3.8,19.2-5.8,28.7   c-6.7,31.1-12.4,62.3-14.3,94.1c-0.9,15-2.1,30.1-0.7,45.3c1.1,12.3,1.2,24.8,2.4,37.2c1.1,12,2.7,24,4.7,35.9   c0.7,5,2.3,9.7,4.7,14.1c4.4,7.3,8.7,7.1,12.8-0.3c3.9-7.4,6.9-15.3,8.9-23.4c6.3-23.4,9.1-47.4,11.7-71.4   c1.3-11.8,1.6-23.8,2-35.6c0.4-15.8,0.5-31.7-0.4-47.5c-0.8-14.4-1.4-28.8-2.3-43.1c-0.4-6.6-1.1-13.1-1.6-19.7   c-0.1-3.7-0.6-7.4-1.4-11.1C1346,652.5,1341.9,644.2,1338,635.6z"></path>
	<path id="Path_10" class="st0" d="M172.4,799c0-44.8,0-89.6,0-134.4c0-7.6-1.1-15.3-0.9-22.9c0.2-6.3,1-12.5,3.4-18.2   c3.1-7.3,8-13,16.1-15.3c1.9-0.6,3.8-0.9,5.8-0.7c11.5,1.5,23,1.9,34.3,4.4c6.4,1.4,11.1,5.6,14.4,11.2c4.3,7.3,0.5,18.5-9.1,19.8   c-2.6,0.5-5.3,0.8-7.9,0.9c-9.6,0-19.3,0-28.9,0c-4.5,0-4.6,0.1-4.5,4.4c0.2,8.7,0,17.4,0.7,26.2c0.8,9.7,0.5,19.6,0.3,29.4   c-0.2,7.5,1.4,14.9,1,22.4c0,3.7-0.3,7.5-0.7,11.2c-0.9,5.3,0.4,10.7,1.5,15.8c1.2,5.6,5,8,12.1,8.2c5.6,0.1,10.9,1.7,16.1,3.3   c6.3,2,8.2,5.1,8.6,11.8c0.9,13.3-6.5,17.4-16.9,17.2c-4.1-0.1-8.1-1.1-12.2-1.2c-6.9-0.2-9.5,2.1-9.6,9.1   c-0.1,13.2-0.5,26.4,0.3,39.6c0.5,8.2,0.7,16.4,0.7,24.6c-0.1,16.8,1.6,33.5,1.2,50.2c-0.1,4.7,0.4,4.9,5.4,5   c11.6,0,23.2,0.3,34.8-0.1c6.6-0.2,10.8,3.7,12.2,9.6c0.7,2.6,1.1,5.2,1,7.9c-0.3,6.7-5.6,12.1-12.3,12.6   c-13.3,1.1-26.6,2.3-39.9,2.3c-4.1,0.2-8.1,0.7-12.1,1.5c-5.4,0.9-10.5-1.6-12.4-6.8c-1.6-4.2-2.4-8.6-2.4-13   c0.1-45.3,0.1-90.6,0-136L172.4,799z"></path>
	<path id="Path_11" class="st0" d="M512.9,786.4c0-9.6-0.2-19.3,0.1-28.9c0.4-13.1,1.5-26.2,2.9-39.3c1-10.1,2-20.1,3.5-30.1   c2.4-16.3,3.9-32.8,10.6-48.2c4.5-10.3,10.6-19.5,19.3-26.5c7.8-6.3,18.5-8.9,28.3-2.4c15.3,10.1,23.3,24.5,24.1,42.9   c0,0.5,0,1.1,0,1.6c-0.4,5.7-2.5,9.2-5.8,9.7c-7.4,1-11.5-1.1-13.5-7.3c-1.4-4.4-2.6-8.9-4.4-13.1c-1.2-3-2.7-5.8-5.1-8   c-3.5-3.1-5.9-3.3-9.4-0.3c-5.1,4.4-8.2,10.2-11,16.2c-5,10.7-7.3,22.1-8.9,33.9c-1.9,13.5-3.4,27.1-4.8,40.7   c-0.7,7-1,14.2-1.5,21.3c-0.9,12.3-0.3,24.6-1.2,36.8c-1,15.2,0.5,30.2,0.6,45.3c0.2,12.4,1.3,24.8,3.1,37.1   c1.8,13.2,4.5,26.3,10.6,38.4c0.8,1.8,1.9,3.4,3.2,4.9c3.4,3.4,6.6,3.6,10.2,0.4c5.4-4.9,8.7-11.2,11.2-17.9   c3.7-10,5.3-20.6,7.4-31.1c0.7-3.5,1.4-7,3.3-10.1c1.9-3.6,5.7-5.7,9.7-5.3c4,0,7.7,2.2,9.5,5.8c2,3.3,2.6,7.1,1.8,10.9   c-3.4,14.5-5.5,29.4-10.4,43.5c-3.7,10.8-9.2,20.4-17.9,28c-4.5,4-10,6.2-15.2,8.9c-2.8,1.5-6.2,0.7-9.4-0.3   c-10.4-3.5-17.3-11-23-19.8c-7.9-12.3-12.1-26.1-14-40.5c-1.2-9-1.7-18-2.1-27.1c-0.5-13.7-1.5-27.3-2-41   C512.7,805.7,512.9,796.1,512.9,786.4z"></path>
	<path id="Path_25" class="st1" d="M884.6,1529.3l0,0.3c-0.1,0-0.2,0-0.3-0.1c-0.1-0.1-0.1-0.2-0.1-0.4L884.6,1529.3z"></path>
</g>
</svg>